// Jest Snapshot v1, https://goo.gl/fbAQLP

exports[`Aside renders correctly 1`] = `
<aside
  className="col-lg-3"
>
  <h1
    className="my-4"
  >
    Joy that the neighbors can see
  </h1>
  <div
    className="list-group"
  >
    <a
      className="list-group-item text-secondary"
      href="#"
    >
      <h3>
        Outdoor Decor
      </h3>
      <small>
        They’ll think your yard is Santa’s other workshop.
      </small>
    </a>
    <a
      className="list-group-item text-secondary"
      href="#"
    >
      <h3>
        Sculptures
      </h3>
      <small>
        When you’re ready to take the next step.
      </small>
    </a>
    <a
      className="list-group-item text-secondary"
      href="#"
    >
      <h3>
        Inflatables
      </h3>
      <small>
        Larger-than-life happiness for the kid in all of us.
      </small>
    </a>
  </div>
</aside>
`;
